{
    "createdBy": "Redirector v3.5.3",
    "createdAt": "2021-08-08T19:11:19.235Z",
    "redirects": [
        {
            "description": "Odznaka 1x",
            "exampleUrl": "https://static.poorchat.net/badges/8R0BNDDKOL/1x",
            "exampleResult": "https://i.imgur.com/LWrlEfM.png",
            "error": null,
            "includePattern": "https://static.poorchat.net/badges/8R0BNDDKOL/*",
            "excludePattern": "",
            "patternDesc": "",
            "redirectUrl": "https://i.imgur.com/LWrlEfM.png",
            "patternType": "W",
            "processMatches": "noProcessing",
            "disabled": false,
            "grouped": false,
            "appliesTo": [
                "sub_frame",
                "stylesheet",
                "script",
                "image",
                "imageset",
                "object",
                "xmlhttprequest",
                "history",
                "other"
            ]
        },
        {
            "description": "Odznaka 3x",
            "exampleUrl": "https://static.poorchat.net/badges/AQ2B4X5BJY/1x",
            "exampleResult": "https://i.imgur.com/pz4UWVR.png",
            "error": null,
            "includePattern": "https://static.poorchat.net/badges/AQ2B4X5BJY/*",
            "excludePattern": "",
            "patternDesc": "",
            "redirectUrl": "https://i.imgur.com/pz4UWVR.png",
            "patternType": "W",
            "processMatches": "noProcessing",
            "disabled": false,
            "grouped": false,
            "appliesTo": [
                "sub_frame",
                "stylesheet",
                "script",
                "image",
                "imageset",
                "object",
                "xmlhttprequest",
                "history",
                "other"
            ]
        },
        {
            "description": "Odznaka 6x",
            "exampleUrl": "https://static.poorchat.net/badges/NQWvgxABPV/1x",
            "exampleResult": "https://i.imgur.com/VjxJVA7.png",
            "error": null,
            "includePattern": "https://static.poorchat.net/badges/NQWvgxABPV/*",
            "excludePattern": "",
            "patternDesc": "",
            "redirectUrl": "https://i.imgur.com/VjxJVA7.png",
            "patternType": "W",
            "processMatches": "noProcessing",
            "disabled": false,
            "grouped": false,
            "appliesTo": [
                "sub_frame",
                "stylesheet",
                "script",
                "image",
                "imageset",
                "object",
                "xmlhttprequest",
                "history",
                "other"
            ]
        },
        {
            "description": "Odznaka 12x",
            "exampleUrl": "https://static.poorchat.net/badges/e0jvl8lvnO/1x",
            "exampleResult": "https://i.imgur.com/L3Yqlro.png",
            "error": null,
            "includePattern": "https://static.poorchat.net/badges/e0jvl8lvnO/*",
            "excludePattern": "",
            "patternDesc": "",
            "redirectUrl": "https://i.imgur.com/L3Yqlro.png",
            "patternType": "W",
            "processMatches": "noProcessing",
            "disabled": false,
            "grouped": false,
            "appliesTo": [
                "sub_frame",
                "stylesheet",
                "script",
                "image",
                "imageset",
                "object",
                "xmlhttprequest",
                "history",
                "other"
            ]
        },
        {
            "description": "Odznaka 24x",
            "exampleUrl": "https://static.poorchat.net/badges/EPnvYDZKb5/1x",
            "exampleResult": "https://i.imgur.com/JZ1c95P.png",
            "error": null,
            "includePattern": "https://static.poorchat.net/badges/EPnvYDZKb5/*",
            "excludePattern": "",
            "patternDesc": "",
            "redirectUrl": "https://i.imgur.com/JZ1c95P.png",
            "patternType": "W",
            "processMatches": "noProcessing",
            "disabled": false,
            "grouped": false,
            "appliesTo": [
                "sub_frame",
                "stylesheet",
                "script",
                "image",
                "imageset",
                "object",
                "xmlhttprequest",
                "history",
                "other"
            ]
        },
        {
            "description": "Odznaka 36x",
            "exampleUrl": "https://static.poorchat.net/badges/jo5GpXNG3E/1x",
            "exampleResult": "https://i.imgur.com/7D5D92f.png",
            "error": null,
            "includePattern": "https://static.poorchat.net/badges/jo5GpXNG3E/*",
            "excludePattern": "",
            "patternDesc": "",
            "redirectUrl": "https://i.imgur.com/7D5D92f.png",
            "patternType": "W",
            "processMatches": "noProcessing",
            "disabled": false,
            "grouped": false,
            "appliesTo": [
                "sub_frame",
                "stylesheet",
                "script",
                "image",
                "imageset",
                "object",
                "xmlhttprequest",
                "history",
                "other"
            ]
        },
        {
            "description": "Odznaka 48x",
            "exampleUrl": "https://static.poorchat.net/badges/3m6GJDqvM0/1x",
            "exampleResult": "https://i.imgur.com/o71cRXl.png",
            "error": null,
            "includePattern": "https://static.poorchat.net/badges/3m6GJDqvM0/*",
            "excludePattern": "",
            "patternDesc": "",
            "redirectUrl": "https://i.imgur.com/o71cRXl.png",
            "patternType": "W",
            "processMatches": "noProcessing",
            "disabled": false,
            "grouped": false,
            "appliesTo": [
                "sub_frame",
                "stylesheet",
                "script",
                "image",
                "imageset",
                "object",
                "xmlhttprequest",
                "history",
                "other"
            ]
        },
        {
            "description": "Odznaka 60x",
            "exampleUrl": "https://static.poorchat.net/badges/WXbKmZ4vkD/1x",
            "exampleResult": "https://i.imgur.com/vK6uzWI.png",
            "error": null,
            "includePattern": "https://static.poorchat.net/badges/WXbKmZ4vkD/*",
            "excludePattern": "",
            "patternDesc": "",
            "redirectUrl": "https://i.imgur.com/vK6uzWI.png",
            "patternType": "W",
            "processMatches": "noProcessing",
            "disabled": false,
            "grouped": false,
            "appliesTo": [
                "sub_frame",
                "stylesheet",
                "script",
                "image",
                "imageset",
                "object",
                "xmlhttprequest",
                "history",
                "other"
            ]
        },
        {
            "description": "Odznaka 72x",
            "exampleUrl": "https://static.poorchat.net/badges/DPWG3eXvyZ/1x",
            "exampleResult": "https://i.imgur.com/JInsGzN.png",
            "error": null,
            "includePattern": "https://static.poorchat.net/badges/DPWG3eXvyZ/*",
            "excludePattern": "",
            "patternDesc": "",
            "redirectUrl": "https://i.imgur.com/JInsGzN.png",
            "patternType": "W",
            "processMatches": "noProcessing",
            "disabled": false,
            "grouped": false,
            "appliesTo": [
                "sub_frame",
                "stylesheet",
                "script",
                "image",
                "imageset",
                "object",
                "xmlhttprequest",
                "history",
                "other"
            ]
        },
        {
            "description": "Odznaka 84x",
            "exampleUrl": "https://static.poorchat.net/badges/Ymxv08dvk8/1x",
            "exampleResult": "https://i.imgur.com/N1fbGEo.png",
            "error": null,
            "includePattern": "https://static.poorchat.net/badges/Ymxv08dvk8/*",
            "excludePattern": "",
            "patternDesc": "",
            "redirectUrl": "https://i.imgur.com/N1fbGEo.png",
            "patternType": "W",
            "processMatches": "noProcessing",
            "disabled": false,
            "grouped": false,
            "appliesTo": [
                "sub_frame",
                "stylesheet",
                "script",
                "image",
                "imageset",
                "object",
                "xmlhttprequest",
                "history",
                "other"
            ]
        },
        {
            "description": "Odznaka 96x",
            "exampleUrl": "https://static.poorchat.net/badges/9kdKrN7KbJ/1x",
            "exampleResult": "https://i.imgur.com/Kt0BuLY.png",
            "error": null,
            "includePattern": "https://static.poorchat.net/badges/9kdKrN7KbJ/*",
            "excludePattern": "",
            "patternDesc": "",
            "redirectUrl": "https://i.imgur.com/Kt0BuLY.png",
            "patternType": "W",
            "processMatches": "noProcessing",
            "disabled": false,
            "grouped": false,
            "appliesTo": [
                "sub_frame",
                "stylesheet",
                "script",
                "image",
                "imageset",
                "object",
                "xmlhttprequest",
                "history",
                "other"
            ]
        },
        {
            "description": "Odznaka 108x",
            "exampleUrl": "https://static.poorchat.net/badges/dNnG8NWvO9/1x",
            "exampleResult": "https://i.imgur.com/0Lqswba.png",
            "error": null,
            "includePattern": "https://static.poorchat.net/badges/dNnG8NWvO9/*",
            "excludePattern": "",
            "patternDesc": "",
            "redirectUrl": "https://i.imgur.com/0Lqswba.png",
            "patternType": "W",
            "processMatches": "noProcessing",
            "disabled": false,
            "grouped": false,
            "appliesTo": [
                "sub_frame",
                "stylesheet",
                "script",
                "image",
                "imageset",
                "object",
                "xmlhttprequest",
                "history",
                "other"
            ]
        },
        {
            "description": "Odznaka 120x",
            "exampleUrl": "https://static.poorchat.net/badges/EbzvE7xGM1/1x",
            "exampleResult": "https://i.imgur.com/uh4k17P.png",
            "error": null,
            "includePattern": "https://static.poorchat.net/badges/EbzvE7xGM1/*",
            "excludePattern": "",
            "patternDesc": "",
            "redirectUrl": "https://i.imgur.com/uh4k17P.png",
            "patternType": "W",
            "processMatches": "noProcessing",
            "disabled": false,
            "grouped": false,
            "appliesTo": [
                "sub_frame",
                "stylesheet",
                "script",
                "image",
                "imageset",
                "object",
                "xmlhttprequest",
                "history",
                "other"
            ]
        }
    ]
}